<?xml version="1.0" encoding="UTF-8" standalone="no"?>
<!-- Created with Inkscape (http://www.inkscape.org/) -->

<svg
   xmlns:dc="http://purl.org/dc/elements/1.1/"
   xmlns:cc="http://creativecommons.org/ns#"
   xmlns:rdf="http://www.w3.org/1999/02/22-rdf-syntax-ns#"
   xmlns:svg="http://www.w3.org/2000/svg"
   xmlns="http://www.w3.org/2000/svg"
   xmlns:xlink="http://www.w3.org/1999/xlink"
   xmlns:sodipodi="http://sodipodi.sourceforge.net/DTD/sodipodi-0.dtd"
   xmlns:inkscape="http://www.inkscape.org/namespaces/inkscape"
   version="1.1"
   id="svg968"
   xml:space="preserve"
   width="588.54669"
   height="73.508736"
   viewBox="0 0 588.54669 73.508735"
   sodipodi:docname="City Skyline.svg"
   inkscape:version="0.92.5 (2060ec1f9f, 2020-04-08)"><metadata
     id="metadata974"><rdf:RDF><cc:Work
         rdf:about=""><dc:format>image/svg+xml</dc:format><dc:type
           rdf:resource="http://purl.org/dc/dcmitype/StillImage" /><dc:title /></cc:Work></rdf:RDF></metadata><defs
     id="defs972"><linearGradient
       inkscape:collect="always"
       id="linearGradient1099"><stop
         style="stop-color:#ffffff;stop-opacity:1;"
         offset="0"
         id="stop1095" /><stop
         style="stop-color:#ffffff;stop-opacity:0;"
         offset="1"
         id="stop1097" /></linearGradient><linearGradient
       inkscape:collect="always"
       xlink:href="#linearGradient1099"
       id="linearGradient1101"
       x1="0"
       y1="-47.286072"
       x2="441.41003"
       y2="-47.286072"
       gradientUnits="userSpaceOnUse" /><clipPath
       clipPathUnits="userSpaceOnUse"
       id="clipPath4905"><rect
         style="opacity:0.6968002;fill:#cccccc;fill-opacity:1;stroke:none;stroke-width:4.5;stroke-miterlimit:4;stroke-dasharray:none;stroke-opacity:1"
         id="rect4907"
         width="492.25943"
         height="74.710533"
         x="-24.073395"
         y="-53.957596"
         ry="3.395565e-05" /></clipPath><clipPath
       clipPathUnits="userSpaceOnUse"
       id="clipPath4909"><rect
         style="opacity:0.6968002;fill:#cccccc;fill-opacity:1;stroke:none;stroke-width:4.5;stroke-miterlimit:4;stroke-dasharray:none;stroke-opacity:1"
         id="rect4911"
         width="492.25943"
         height="74.710533"
         x="-24.073395"
         y="-53.957596"
         ry="3.395565e-05"
         transform="scale(1,-1)" /></clipPath><clipPath
       clipPathUnits="userSpaceOnUse"
       id="clipPath4913"><rect
         style="opacity:0.6968002;fill:#cccccc;fill-opacity:1;stroke:none;stroke-width:4.5;stroke-miterlimit:4;stroke-dasharray:none;stroke-opacity:1"
         id="rect4915"
         width="492.25943"
         height="74.710533"
         x="-24.073395"
         y="-53.957596"
         ry="3.395565e-05"
         transform="scale(1,-1)" /></clipPath><clipPath
       clipPathUnits="userSpaceOnUse"
       id="clipPath4917"><rect
         style="opacity:0.6968002;fill:#cccccc;fill-opacity:1;stroke:none;stroke-width:4.5;stroke-miterlimit:4;stroke-dasharray:none;stroke-opacity:1"
         id="rect4919"
         width="492.25943"
         height="74.710533"
         x="-24.073395"
         y="-53.957596"
         ry="3.395565e-05"
         transform="scale(1,-1)" /></clipPath><clipPath
       clipPathUnits="userSpaceOnUse"
       id="clipPath4921"><rect
         style="opacity:0.6968002;fill:#cccccc;fill-opacity:1;stroke:none;stroke-width:4.5;stroke-miterlimit:4;stroke-dasharray:none;stroke-opacity:1"
         id="rect4923"
         width="492.25943"
         height="74.710533"
         x="-24.073395"
         y="-53.957596"
         ry="3.395565e-05"
         transform="scale(1,-1)" /></clipPath><clipPath
       clipPathUnits="userSpaceOnUse"
       id="clipPath4925"><rect
         style="opacity:0.6968002;fill:#cccccc;fill-opacity:1;stroke:none;stroke-width:4.5;stroke-miterlimit:4;stroke-dasharray:none;stroke-opacity:1"
         id="rect4927"
         width="492.25943"
         height="74.710533"
         x="-24.073395"
         y="-53.957596"
         ry="3.395565e-05"
         transform="scale(1,-1)" /></clipPath><clipPath
       clipPathUnits="userSpaceOnUse"
       id="clipPath4929"><rect
         style="opacity:0.6968002;fill:#cccccc;fill-opacity:1;stroke:none;stroke-width:4.5;stroke-miterlimit:4;stroke-dasharray:none;stroke-opacity:1"
         id="rect4931"
         width="492.25943"
         height="74.710533"
         x="-24.073395"
         y="-53.957596"
         ry="3.395565e-05"
         transform="scale(1,-1)" /></clipPath><clipPath
       clipPathUnits="userSpaceOnUse"
       id="clipPath4933"><rect
         style="opacity:0.6968002;fill:#cccccc;fill-opacity:1;stroke:none;stroke-width:4.5;stroke-miterlimit:4;stroke-dasharray:none;stroke-opacity:1"
         id="rect4935"
         width="492.25943"
         height="74.710533"
         x="-24.073395"
         y="-53.957596"
         ry="3.395565e-05"
         transform="scale(1,-1)" /></clipPath><clipPath
       clipPathUnits="userSpaceOnUse"
       id="clipPath4937"><rect
         style="opacity:0.6968002;fill:#cccccc;fill-opacity:1;stroke:none;stroke-width:4.5;stroke-miterlimit:4;stroke-dasharray:none;stroke-opacity:1"
         id="rect4939"
         width="492.25943"
         height="74.710533"
         x="-24.073395"
         y="-53.957596"
         ry="3.395565e-05"
         transform="scale(1,-1)" /></clipPath><clipPath
       clipPathUnits="userSpaceOnUse"
       id="clipPath4941"><rect
         style="opacity:0.6968002;fill:#cccccc;fill-opacity:1;stroke:none;stroke-width:4.5;stroke-miterlimit:4;stroke-dasharray:none;stroke-opacity:1"
         id="rect4943"
         width="492.25943"
         height="74.710533"
         x="-24.073395"
         y="-53.957596"
         ry="3.395565e-05"
         transform="scale(1,-1)" /></clipPath><clipPath
       clipPathUnits="userSpaceOnUse"
       id="clipPath4945"><rect
         style="opacity:0.6968002;fill:#cccccc;fill-opacity:1;stroke:none;stroke-width:4.5;stroke-miterlimit:4;stroke-dasharray:none;stroke-opacity:1"
         id="rect4947"
         width="492.25943"
         height="74.710533"
         x="-24.073395"
         y="-53.957596"
         ry="3.395565e-05"
         transform="scale(1,-1)" /></clipPath><clipPath
       clipPathUnits="userSpaceOnUse"
       id="clipPath4949"><rect
         style="opacity:0.6968002;fill:#cccccc;fill-opacity:1;stroke:none;stroke-width:4.5;stroke-miterlimit:4;stroke-dasharray:none;stroke-opacity:1"
         id="rect4951"
         width="492.25943"
         height="74.710533"
         x="-24.073395"
         y="-53.957596"
         ry="3.395565e-05"
         transform="scale(1,-1)" /></clipPath><clipPath
       clipPathUnits="userSpaceOnUse"
       id="clipPath4953"><rect
         style="opacity:0.6968002;fill:#cccccc;fill-opacity:1;stroke:none;stroke-width:4.5;stroke-miterlimit:4;stroke-dasharray:none;stroke-opacity:1"
         id="rect4955"
         width="492.25943"
         height="74.710533"
         x="-24.073395"
         y="-53.957596"
         ry="3.395565e-05"
         transform="scale(1,-1)" /></clipPath><clipPath
       clipPathUnits="userSpaceOnUse"
       id="clipPath4957"><rect
         style="opacity:0.6968002;fill:#cccccc;fill-opacity:1;stroke:none;stroke-width:4.5;stroke-miterlimit:4;stroke-dasharray:none;stroke-opacity:1"
         id="rect4959"
         width="492.25943"
         height="74.710533"
         x="-24.073395"
         y="-53.957596"
         ry="3.395565e-05"
         transform="scale(1,-1)" /></clipPath><clipPath
       clipPathUnits="userSpaceOnUse"
       id="clipPath4961"><rect
         style="opacity:0.6968002;fill:#cccccc;fill-opacity:1;stroke:none;stroke-width:4.5;stroke-miterlimit:4;stroke-dasharray:none;stroke-opacity:1"
         id="rect4963"
         width="492.25943"
         height="74.710533"
         x="-24.073395"
         y="-53.957596"
         ry="3.395565e-05"
         transform="scale(1,-1)" /></clipPath><clipPath
       clipPathUnits="userSpaceOnUse"
       id="clipPath4965"><rect
         style="opacity:0.6968002;fill:#cccccc;fill-opacity:1;stroke:none;stroke-width:4.5;stroke-miterlimit:4;stroke-dasharray:none;stroke-opacity:1"
         id="rect4967"
         width="492.25943"
         height="74.710533"
         x="-24.073395"
         y="-53.957596"
         ry="3.395565e-05"
         transform="scale(1,-1)" /></clipPath><clipPath
       clipPathUnits="userSpaceOnUse"
       id="clipPath4969"><rect
         style="opacity:0.6968002;fill:#cccccc;fill-opacity:1;stroke:none;stroke-width:4.5;stroke-miterlimit:4;stroke-dasharray:none;stroke-opacity:1"
         id="rect4971"
         width="492.25943"
         height="74.710533"
         x="-24.073395"
         y="-53.957596"
         ry="3.395565e-05"
         transform="scale(1,-1)" /></clipPath><clipPath
       clipPathUnits="userSpaceOnUse"
       id="clipPath4973"><rect
         style="opacity:0.6968002;fill:#cccccc;fill-opacity:1;stroke:none;stroke-width:4.5;stroke-miterlimit:4;stroke-dasharray:none;stroke-opacity:1"
         id="rect4975"
         width="492.25943"
         height="74.710533"
         x="-24.073395"
         y="-53.957596"
         ry="3.395565e-05"
         transform="scale(1,-1)" /></clipPath><clipPath
       clipPathUnits="userSpaceOnUse"
       id="clipPath4977"><rect
         style="opacity:0.6968002;fill:#cccccc;fill-opacity:1;stroke:none;stroke-width:4.5;stroke-miterlimit:4;stroke-dasharray:none;stroke-opacity:1"
         id="rect4979"
         width="492.25943"
         height="74.710533"
         x="-24.073395"
         y="-53.957596"
         ry="3.395565e-05"
         transform="scale(1,-1)" /></clipPath><clipPath
       clipPathUnits="userSpaceOnUse"
       id="clipPath4981"><rect
         style="opacity:0.6968002;fill:#cccccc;fill-opacity:1;stroke:none;stroke-width:4.5;stroke-miterlimit:4;stroke-dasharray:none;stroke-opacity:1"
         id="rect4983"
         width="492.25943"
         height="74.710533"
         x="-24.073395"
         y="-53.957596"
         ry="3.395565e-05"
         transform="scale(1,-1)" /></clipPath><clipPath
       clipPathUnits="userSpaceOnUse"
       id="clipPath4985"><rect
         style="opacity:0.6968002;fill:#cccccc;fill-opacity:1;stroke:none;stroke-width:4.5;stroke-miterlimit:4;stroke-dasharray:none;stroke-opacity:1"
         id="rect4987"
         width="492.25943"
         height="74.710533"
         x="-24.073395"
         y="-53.957596"
         ry="3.395565e-05"
         transform="scale(1,-1)" /></clipPath><clipPath
       clipPathUnits="userSpaceOnUse"
       id="clipPath4989"><rect
         style="opacity:0.6968002;fill:#cccccc;fill-opacity:1;stroke:none;stroke-width:4.5;stroke-miterlimit:4;stroke-dasharray:none;stroke-opacity:1"
         id="rect4991"
         width="492.25943"
         height="74.710533"
         x="-24.073395"
         y="-53.957596"
         ry="3.395565e-05"
         transform="scale(1,-1)" /></clipPath><clipPath
       clipPathUnits="userSpaceOnUse"
       id="clipPath4993"><rect
         style="opacity:0.6968002;fill:#cccccc;fill-opacity:1;stroke:none;stroke-width:4.5;stroke-miterlimit:4;stroke-dasharray:none;stroke-opacity:1"
         id="rect4995"
         width="492.25943"
         height="74.710533"
         x="-24.073395"
         y="-53.957596"
         ry="3.395565e-05"
         transform="scale(1,-1)" /></clipPath><clipPath
       clipPathUnits="userSpaceOnUse"
       id="clipPath4997"><rect
         style="opacity:0.6968002;fill:#cccccc;fill-opacity:1;stroke:none;stroke-width:4.5;stroke-miterlimit:4;stroke-dasharray:none;stroke-opacity:1"
         id="rect4999"
         width="492.25943"
         height="74.710533"
         x="-24.073395"
         y="-53.957596"
         ry="3.395565e-05"
         transform="scale(1,-1)" /></clipPath><clipPath
       clipPathUnits="userSpaceOnUse"
       id="clipPath5001"><rect
         style="opacity:0.6968002;fill:#cccccc;fill-opacity:1;stroke:none;stroke-width:4.5;stroke-miterlimit:4;stroke-dasharray:none;stroke-opacity:1"
         id="rect5003"
         width="492.25943"
         height="74.710533"
         x="-24.073395"
         y="-53.957596"
         ry="3.395565e-05"
         transform="scale(1,-1)" /></clipPath><clipPath
       clipPathUnits="userSpaceOnUse"
       id="clipPath5005"><rect
         style="opacity:0.6968002;fill:#cccccc;fill-opacity:1;stroke:none;stroke-width:4.5;stroke-miterlimit:4;stroke-dasharray:none;stroke-opacity:1"
         id="rect5007"
         width="492.25943"
         height="74.710533"
         x="-24.073395"
         y="-53.957596"
         ry="3.395565e-05"
         transform="scale(1,-1)" /></clipPath><clipPath
       clipPathUnits="userSpaceOnUse"
       id="clipPath5009"><rect
         style="opacity:0.6968002;fill:#cccccc;fill-opacity:1;stroke:none;stroke-width:4.5;stroke-miterlimit:4;stroke-dasharray:none;stroke-opacity:1"
         id="rect5011"
         width="492.25943"
         height="74.710533"
         x="-24.073395"
         y="-53.957596"
         ry="3.395565e-05"
         transform="scale(1,-1)" /></clipPath><clipPath
       clipPathUnits="userSpaceOnUse"
       id="clipPath5013"><rect
         style="opacity:0.6968002;fill:#cccccc;fill-opacity:1;stroke:none;stroke-width:4.5;stroke-miterlimit:4;stroke-dasharray:none;stroke-opacity:1"
         id="rect5015"
         width="492.25943"
         height="74.710533"
         x="-24.073395"
         y="-53.957596"
         ry="3.395565e-05"
         transform="scale(1,-1)" /></clipPath><clipPath
       clipPathUnits="userSpaceOnUse"
       id="clipPath5017"><rect
         style="opacity:0.6968002;fill:#cccccc;fill-opacity:1;stroke:none;stroke-width:4.5;stroke-miterlimit:4;stroke-dasharray:none;stroke-opacity:1"
         id="rect5019"
         width="492.25943"
         height="74.710533"
         x="-24.073395"
         y="-53.957596"
         ry="3.395565e-05"
         transform="scale(1,-1)" /></clipPath><clipPath
       clipPathUnits="userSpaceOnUse"
       id="clipPath5021"><rect
         style="opacity:0.6968002;fill:#cccccc;fill-opacity:1;stroke:none;stroke-width:4.5;stroke-miterlimit:4;stroke-dasharray:none;stroke-opacity:1"
         id="rect5023"
         width="492.25943"
         height="74.710533"
         x="-24.073395"
         y="-53.957596"
         ry="3.395565e-05"
         transform="scale(1,-1)" /></clipPath><clipPath
       clipPathUnits="userSpaceOnUse"
       id="clipPath5025"><rect
         style="opacity:0.6968002;fill:#cccccc;fill-opacity:1;stroke:none;stroke-width:4.5;stroke-miterlimit:4;stroke-dasharray:none;stroke-opacity:1"
         id="rect5027"
         width="492.25943"
         height="74.710533"
         x="-24.073395"
         y="-53.957596"
         ry="3.395565e-05"
         transform="scale(1,-1)" /></clipPath><clipPath
       clipPathUnits="userSpaceOnUse"
       id="clipPath5029"><rect
         style="opacity:0.6968002;fill:#cccccc;fill-opacity:1;stroke:none;stroke-width:4.5;stroke-miterlimit:4;stroke-dasharray:none;stroke-opacity:1"
         id="rect5031"
         width="492.25943"
         height="74.710533"
         x="-24.073395"
         y="-53.957596"
         ry="3.395565e-05"
         transform="scale(1,-1)" /></clipPath><clipPath
       clipPathUnits="userSpaceOnUse"
       id="clipPath5033"><rect
         style="opacity:0.6968002;fill:#cccccc;fill-opacity:1;stroke:none;stroke-width:4.5;stroke-miterlimit:4;stroke-dasharray:none;stroke-opacity:1"
         id="rect5035"
         width="492.25943"
         height="74.710533"
         x="-24.073395"
         y="-53.957596"
         ry="3.395565e-05"
         transform="scale(1,-1)" /></clipPath><clipPath
       clipPathUnits="userSpaceOnUse"
       id="clipPath5037"><rect
         style="opacity:0.6968002;fill:#cccccc;fill-opacity:1;stroke:none;stroke-width:4.5;stroke-miterlimit:4;stroke-dasharray:none;stroke-opacity:1"
         id="rect5039"
         width="492.25943"
         height="74.710533"
         x="-24.073395"
         y="-53.957596"
         ry="3.395565e-05"
         transform="scale(1,-1)" /></clipPath><clipPath
       clipPathUnits="userSpaceOnUse"
       id="clipPath5041"><rect
         style="opacity:0.6968002;fill:#cccccc;fill-opacity:1;stroke:none;stroke-width:4.5;stroke-miterlimit:4;stroke-dasharray:none;stroke-opacity:1"
         id="rect5043"
         width="492.25943"
         height="74.710533"
         x="-24.073395"
         y="-53.957596"
         ry="3.395565e-05"
         transform="scale(1,-1)" /></clipPath><clipPath
       clipPathUnits="userSpaceOnUse"
       id="clipPath5045"><rect
         style="opacity:0.6968002;fill:#cccccc;fill-opacity:1;stroke:none;stroke-width:4.5;stroke-miterlimit:4;stroke-dasharray:none;stroke-opacity:1"
         id="rect5047"
         width="492.25943"
         height="74.710533"
         x="-24.073395"
         y="-53.957596"
         ry="3.395565e-05"
         transform="scale(1,-1)" /></clipPath><clipPath
       clipPathUnits="userSpaceOnUse"
       id="clipPath5049"><rect
         style="opacity:0.6968002;fill:#cccccc;fill-opacity:1;stroke:none;stroke-width:4.5;stroke-miterlimit:4;stroke-dasharray:none;stroke-opacity:1"
         id="rect5051"
         width="492.25943"
         height="74.710533"
         x="-24.073395"
         y="-53.957596"
         ry="3.395565e-05"
         transform="scale(1,-1)" /></clipPath><clipPath
       clipPathUnits="userSpaceOnUse"
       id="clipPath5053"><rect
         style="opacity:0.6968002;fill:#cccccc;fill-opacity:1;stroke:none;stroke-width:4.5;stroke-miterlimit:4;stroke-dasharray:none;stroke-opacity:1"
         id="rect5055"
         width="492.25943"
         height="74.710533"
         x="-24.073395"
         y="-53.957596"
         ry="3.395565e-05"
         transform="scale(1,-1)" /></clipPath><clipPath
       clipPathUnits="userSpaceOnUse"
       id="clipPath5057"><rect
         style="opacity:0.6968002;fill:#cccccc;fill-opacity:1;stroke:none;stroke-width:4.5;stroke-miterlimit:4;stroke-dasharray:none;stroke-opacity:1"
         id="rect5059"
         width="492.25943"
         height="74.710533"
         x="-24.073395"
         y="-53.957596"
         ry="3.395565e-05"
         transform="scale(1,-1)" /></clipPath><clipPath
       clipPathUnits="userSpaceOnUse"
       id="clipPath5061"><rect
         style="opacity:0.6968002;fill:#cccccc;fill-opacity:1;stroke:none;stroke-width:4.5;stroke-miterlimit:4;stroke-dasharray:none;stroke-opacity:1"
         id="rect5063"
         width="492.25943"
         height="74.710533"
         x="-24.073395"
         y="-53.957596"
         ry="3.395565e-05"
         transform="scale(1,-1)" /></clipPath><clipPath
       clipPathUnits="userSpaceOnUse"
       id="clipPath5065"><rect
         style="opacity:0.6968002;fill:#cccccc;fill-opacity:1;stroke:none;stroke-width:4.5;stroke-miterlimit:4;stroke-dasharray:none;stroke-opacity:1"
         id="rect5067"
         width="492.25943"
         height="74.710533"
         x="-24.073395"
         y="-53.957596"
         ry="3.395565e-05"
         transform="scale(1,-1)" /></clipPath><clipPath
       clipPathUnits="userSpaceOnUse"
       id="clipPath5069"><rect
         style="opacity:0.6968002;fill:#cccccc;fill-opacity:1;stroke:none;stroke-width:4.5;stroke-miterlimit:4;stroke-dasharray:none;stroke-opacity:1"
         id="rect5071"
         width="492.25943"
         height="74.710533"
         x="-24.073395"
         y="-53.957596"
         ry="3.395565e-05"
         transform="scale(1,-1)" /></clipPath><clipPath
       clipPathUnits="userSpaceOnUse"
       id="clipPath5073"><rect
         style="opacity:0.6968002;fill:#cccccc;fill-opacity:1;stroke:none;stroke-width:4.5;stroke-miterlimit:4;stroke-dasharray:none;stroke-opacity:1"
         id="rect5075"
         width="492.25943"
         height="74.710533"
         x="-24.073395"
         y="-53.957596"
         ry="3.395565e-05"
         transform="scale(1,-1)" /></clipPath><clipPath
       clipPathUnits="userSpaceOnUse"
       id="clipPath5077"><rect
         style="opacity:0.6968002;fill:#cccccc;fill-opacity:1;stroke:none;stroke-width:4.5;stroke-miterlimit:4;stroke-dasharray:none;stroke-opacity:1"
         id="rect5079"
         width="492.25943"
         height="74.710533"
         x="-24.073395"
         y="-53.957596"
         ry="3.395565e-05"
         transform="scale(1,-1)" /></clipPath><linearGradient
       inkscape:collect="always"
       xlink:href="#linearGradient1099"
       id="linearGradient5081"
       gradientUnits="userSpaceOnUse"
       x1="0"
       y1="-47.286072"
       x2="441.41003"
       y2="-47.286072" /></defs><sodipodi:namedview
     pagecolor="#ffffff"
     bordercolor="#666666"
     borderopacity="1"
     objecttolerance="10"
     gridtolerance="10"
     guidetolerance="10"
     inkscape:pageopacity="0"
     inkscape:pageshadow="2"
     inkscape:window-width="1364"
     inkscape:window-height="746"
     id="namedview970"
     showgrid="false"
     inkscape:zoom="0.90348702"
     inkscape:cx="289.468"
     inkscape:cy="127.82332"
     inkscape:window-x="0"
     inkscape:window-y="20"
     inkscape:window-maximized="1"
     inkscape:current-layer="g976" /><g
     id="g976"
     inkscape:groupmode="layer"
     inkscape:label="ink_ext_XXXXXX"
     transform="matrix(1.3333333,0,0,-1.3333333,0,71.943459)"><path
       inkscape:connector-curvature="0"
       id="path980"
       style="fill:#005e8a;fill-opacity:1;fill-rule:nonzero;stroke:none;stroke-width:0.1"
       d="m 236.267,26.2051 -0.012,4.032 c -6.39,-1.8301 -10.954,-4.868 -13.591,-8.1211 v -9.3488 l 1.496,0.5219 c -0.064,0.3437 -0.1,0.6949 -0.1,1.055 0.003,4.1168 4.175,9.145 12.207,11.861"
       clip-path="url(#clipPath5077)" /><path
       inkscape:connector-curvature="0"
       id="path982"
       style="fill:#005e8a;fill-opacity:1;fill-rule:nonzero;stroke:none;stroke-width:0.1"
       d="m 150.146,8.89375 0.222,-0.75664 c 0.225,-0.01328 0.377,-0.03594 0.377,-0.06406 0,-0.02696 -0.14,-0.05 -0.347,-0.06289 l 0.036,-0.34024 c 0.252,-0.01289 0.42,-0.03594 0.42,-0.06289 0,-0.02695 -0.164,-0.05 -0.407,-0.06289 l 0.059,-0.55312 c 0.339,-0.01211 0.571,-0.03711 0.571,-0.06719 0,-0.02891 -0.226,-0.05274 -0.557,-0.06602 l 0.041,-0.38867 c 0.505,-0.01914 0.858,-0.06406 0.858,-0.11719 0,-0.05195 -0.342,-0.09609 -0.832,-0.11601 l 0.014,-0.13203 0.985,-1.04102 c 0.039,0.27109 0.059,0.55313 0.059,0.83594 0.002,1.36523 -0.473,2.73828 -1.499,2.99492"
       clip-path="url(#clipPath5073)" /><path
       inkscape:connector-curvature="0"
       id="path984"
       style="fill:#005e8a;fill-opacity:1;fill-rule:nonzero;stroke:none;stroke-width:0.1"
       d="m 175.661,9.66719 h -1.114 c 0.05,-0.07617 0.077,-0.15821 0.077,-0.24219 0,-0.45781 -0.791,-0.82891 -1.767,-0.82891 -0.977,0 -1.768,0.3711 -1.768,0.82891 0,0.08398 0.029,0.16602 0.077,0.24219 h -1.241 c 0.467,-0.51016 1.391,-1.33203 2.627,-1.51524 0.098,-0.01406 0.312,-0.01406 0.411,0 1.493,0.22696 2.317,1.01993 2.698,1.51524"
       clip-path="url(#clipPath5069)" /><path
       inkscape:connector-curvature="0"
       id="path986"
       style="fill:#005e8a;fill-opacity:1;fill-rule:nonzero;stroke:none;stroke-width:0.1"
       d="m 325.786,9.35195 h -0.83 c 0.038,-0.06406 0.056,-0.13086 0.056,-0.20195 0,-0.38008 -0.59,-0.68906 -1.318,-0.68906 -0.728,0 -1.318,0.30898 -1.318,0.68906 0,0.07109 0.02,0.13789 0.056,0.20195 h -0.926 c 0.349,-0.42382 1.038,-1.10781 1.96,-1.25976 0.074,-0.01211 0.234,-0.01211 0.308,0 1.113,0.18867 1.728,0.84765 2.012,1.25976"
       clip-path="url(#clipPath5065)" /><path
       inkscape:connector-curvature="0"
       id="path988"
       style="fill:#005e8a;fill-opacity:1;fill-rule:nonzero;stroke:none;stroke-width:0.1"
       d="m 144.377,6.85 c 0,-0.21016 0.015,-0.41797 0.037,-0.62305 l 0.193,-0.03281 0.813,0.86094 0.015,0.13203 c -0.49,0.01992 -0.833,0.06484 -0.833,0.1168 0,0.05195 0.354,0.09804 0.858,0.11718 l 0.042,0.38907 c -0.332,0.01172 -0.558,0.03672 -0.558,0.06601 0,0.02891 0.233,0.05391 0.572,0.06602 l 0.059,0.5539 c -0.244,0.01172 -0.406,0.03594 -0.406,0.06172 0,0.02735 0.168,0.05117 0.42,0.06407 l 0.036,0.33906 c -0.209,0.01289 -0.348,0.03594 -0.348,0.06289 0,0.02812 0.153,0.05234 0.378,0.06406 l 0.222,0.75703 C 144.851,9.58789 144.374,8.21484 144.377,6.85"
       clip-path="url(#clipPath5061)" /><path
       inkscape:connector-curvature="0"
       id="path990"
       style="fill:#005e8a;fill-opacity:1;fill-rule:nonzero;stroke:none;stroke-width:0.1"
       d="m 130.493,12.102 -0.592,-1.3899 -0.262,-0.157 h 1.71 l -0.265,0.157 -0.591,1.3899"
       clip-path="url(#clipPath5057)" /><path
       inkscape:connector-curvature="0"
       id="path992"
       style="fill:#005e8a;fill-opacity:1;fill-rule:nonzero;stroke:none;stroke-width:0.1"
       d="m 268.262,8.86289 6.015,-1.1457 -0.019,-3.4793 4.466,0.02617 0.019,7.30004 -10.486,-2.66918 0.005,-0.03203"
       clip-path="url(#clipPath5053)" /><path
       inkscape:connector-curvature="0"
       id="path994"
       style="fill:#005e8a;fill-opacity:1;fill-rule:nonzero;stroke:none;stroke-width:0.1"
       d="m 268.194,9.28906 10.549,2.68394 0.002,0.1692 -10.576,-2.69103 0.025,-0.16211"
       clip-path="url(#clipPath5049)" /><path
       inkscape:connector-curvature="0"
       id="path996"
       style="fill:#005e8a;fill-opacity:1;fill-rule:nonzero;stroke:none;stroke-width:0.1"
       d="m 237.26,33.5262 c 0,-0.5633 0.069,-1.1223 0.203,-1.659 l 3.366,2.0648 0.048,0.2621 c -1.677,0.0387 -2.846,0.1278 -2.846,0.2309 0,0.1039 1.208,0.1941 2.932,0.232 l 0.142,0.7711 c -1.133,0.0239 -1.907,0.0739 -1.907,0.1309 0,0.0582 0.798,0.1082 1.955,0.132 l 0.202,1.0981 c -0.834,0.0257 -1.389,0.0718 -1.389,0.1238 0,0.0531 0.575,0.1 1.434,0.1262 l 0.125,0.673 c -0.713,0.0258 -1.188,0.0731 -1.188,0.125 0,0.0551 0.519,0.102 1.29,0.1277 l 0.758,1.5012 c -3.505,-0.5101 -5.133,-3.234 -5.125,-5.9398"
       clip-path="url(#clipPath5045)" /><path
       inkscape:connector-curvature="0"
       id="path998"
       style="fill:#005e8a;fill-opacity:1;fill-rule:nonzero;stroke:none;stroke-width:0.1"
       d="m 344.906,23.9301 c 0,-1.1332 0.266,-2.3473 0.82,-3.586 h 0.311 l 0.002,6.293 2.415,3.0141 c -2.272,-1.1481 -3.548,-3.2364 -3.548,-5.7211"
       clip-path="url(#clipPath5041)" /><path
       inkscape:connector-curvature="0"
       id="path1000"
       style="fill:#005e8a;fill-opacity:1;fill-rule:nonzero;stroke:none;stroke-width:0.1"
       d="m 130.825,12.9891 c 0,0.1097 -0.143,0.2 -0.321,0.2 -0.178,0 -0.321,-0.0903 -0.321,-0.2 0,-0.1102 0.143,-0.1993 0.321,-0.1993 0.178,0 0.321,0.0891 0.321,0.1993"
       clip-path="url(#clipPath5037)" /><path
       inkscape:connector-curvature="0"
       id="path1002"
       style="fill:#005e8a;fill-opacity:1;fill-rule:nonzero;stroke:none;stroke-width:0.1"
       d="m 5.5957,15.6699 c 0,-0.3699 0.03438,-0.7328 0.09766,-1.0879 L 21.3805,19.491 21.3426,29.5801 C 10.993,26.3559 5.59102,20.468 5.5957,15.6699"
       clip-path="url(#clipPath5033)" /><path
       inkscape:connector-curvature="0"
       id="path1004"
       style="fill:#005e8a;fill-opacity:1;fill-rule:nonzero;stroke:none;stroke-width:0.1"
       d="m 22.6719,38.7371 c 0,-0.6769 0.0929,-1.35 0.2722,-1.9949 l 4.5118,2.4828 0.0644,0.3148 c -2.248,0.0481 -3.8148,0.1543 -3.8148,0.2782 0,0.125 1.6187,0.2332 3.9297,0.2789 l 0.1886,0.9269 c -1.5164,0.0293 -2.5531,0.0891 -2.5531,0.1582 0,0.0692 1.0684,0.1289 2.618,0.1578 l 0.2718,1.3211 c -1.1183,0.0313 -1.8609,0.086 -1.8609,0.1493 0,0.0636 0.7707,0.1199 1.9223,0.1507 l 0.1652,0.8102 c -0.9547,0.032 -1.5918,0.0867 -1.5918,0.15 0,0.066 0.6969,0.123 1.7289,0.1539 l 1.0176,1.8051 C 24.843,45.2672 22.6625,41.991 22.6719,38.7371"
       clip-path="url(#clipPath5029)" /><path
       inkscape:connector-curvature="0"
       id="path1006"
       style="fill:#005e8a;fill-opacity:1;fill-rule:nonzero;stroke:none;stroke-width:0.1"
       d="m 21.3426,29.9328 -0.0172,4.8481 C 9.04414,31.6262 1.80586,25.482 0,19.8711 V 14.6398 C 0.204688,14.0891 0.4625,13.5551 0.808594,13.0531 L 5.11914,14.402 c -0.08672,0.4128 -0.13398,0.8359 -0.13398,1.2679 0.00312,4.95 5.59254,10.9973 16.35744,14.2629"
       clip-path="url(#clipPath5025)" /><path
       inkscape:connector-curvature="0"
       id="path1008"
       style="fill:#005e8a;fill-opacity:1;fill-rule:nonzero;stroke:none;stroke-width:0.1"
       d="m 0,12.8 0.160547,0.0512 C 0.0992188,12.9379 0.0566406,13.0309 0,13.1191 V 12.8"
       clip-path="url(#clipPath5021)" /><path
       inkscape:connector-curvature="0"
       id="path1010"
       style="fill:#005e8a;fill-opacity:1;fill-rule:nonzero;stroke:none;stroke-width:0.1"
       d="m 41.1879,20.341 c 0,-0.389 0.0187,-0.7769 0.0551,-1.159 l 0.6652,-0.0281 1.5434,1.6313 0.0297,0.2867 c -1.0633,0.0429 -1.8043,0.139 -1.8043,0.2519 0,0.1141 0.766,0.2121 1.8593,0.2543 l 0.0899,0.843 c -0.7172,0.0258 -1.2082,0.0801 -1.2082,0.143 0,0.0629 0.505,0.1168 1.2379,0.1429 l 0.1293,1.2 c -0.5289,0.0289 -0.8813,0.0789 -0.8813,0.136 0,0.0582 0.3652,0.109 0.9094,0.1379 l 0.0789,0.7351 c -0.4516,0.0289 -0.7539,0.0789 -0.7539,0.1371 0,0.0598 0.3305,0.1117 0.8183,0.1391 l 0.4813,1.6406 c -2.2231,-0.5578 -3.2531,-3.534 -3.25,-6.4918"
       clip-path="url(#clipPath5017)" /><path
       inkscape:connector-curvature="0"
       id="path1012"
       style="fill:#005e8a;fill-opacity:1;fill-rule:nonzero;stroke:none;stroke-width:0.1"
       d="m 126.345,12.102 -0.592,-1.3899 -0.263,-0.157 h 1.712 l -0.263,0.157 -0.594,1.3899"
       clip-path="url(#clipPath5013)" /><path
       inkscape:connector-curvature="0"
       id="path1014"
       style="fill:#005e8a;fill-opacity:1;fill-rule:nonzero;stroke:none;stroke-width:0.1"
       d="m 130.457,12.693 c -0.217,0.014 -0.386,0.1359 -0.392,0.2859 -0.466,-0.218 -0.999,-0.3359 -1.523,-0.3519 -0.648,-0.0192 -1.282,0.114 -1.758,0.3929 10e-4,-0.0109 0.006,-0.0219 0.006,-0.0328 0,-0.157 -0.181,-0.284 -0.408,-0.2949 l 0.557,-1.3012 0.552,-0.8359 h 1.858 l 0.552,0.8359 0.556,1.302"
       clip-path="url(#clipPath5009)" /><path
       inkscape:connector-curvature="0"
       id="path1016"
       style="fill:#005e8a;fill-opacity:1;fill-rule:nonzero;stroke:none;stroke-width:0.1"
       d="m 126.678,12.9891 c 0,0.1097 -0.145,0.2 -0.321,0.2 -0.179,0 -0.322,-0.0903 -0.322,-0.2 0,-0.1102 0.143,-0.1993 0.322,-0.1993 0.176,0 0.321,0.0891 0.321,0.1993"
       clip-path="url(#clipPath5005)" /><path
       inkscape:connector-curvature="0"
       id="path1018"
       style="fill:#005e8a;fill-opacity:1;fill-rule:nonzero;stroke:none;stroke-width:0.1"
       d="m 64.127,9.59102 48.492,3.22808 v 0.2028 L 64.0926,9.78711 64.127,9.59102"
       clip-path="url(#clipPath5001)" /><path
       inkscape:connector-curvature="0"
       id="path1020"
       style="fill:#005e8a;fill-opacity:1;fill-rule:nonzero;stroke:none;stroke-width:0.1"
       d="M 64.2168,9.07891 72.2793,7.70117 72.2539,3.51797 112.592,3.54883 112.616,12.3281 64.2105,9.11797 64.2168,9.07891"
       clip-path="url(#clipPath4997)" /><path
       inkscape:connector-curvature="0"
       id="path1022"
       style="fill:#005e8a;fill-opacity:1;fill-rule:nonzero;stroke:none;stroke-width:0.1"
       d="m 224.516,14.3441 c 0,-0.3082 0.025,-0.6101 0.074,-0.905 l 11.706,4.082 -0.029,8.391 c -7.722,-2.6812 -11.754,-7.5781 -11.751,-11.568"
       clip-path="url(#clipPath4993)" /><path
       inkscape:connector-curvature="0"
       id="path1024"
       style="fill:#005e8a;fill-opacity:1;fill-rule:nonzero;stroke:none;stroke-width:0.1"
       d="m 404.706,2.39102 2.935,-0.02696 -0.012,3.71602 3.954,1.22305 0.004,0.03476 -6.894,2.85001 0.013,-7.79688"
       clip-path="url(#clipPath4989)" /><path
       inkscape:connector-curvature="0"
       id="path1026"
       style="fill:#005e8a;fill-opacity:1;fill-rule:nonzero;stroke:none;stroke-width:0.1"
       d="M 397.96,9.98789 397.669,8.75391 397.54,8.61406 h 0.839 l -0.128,0.13985 -0.291,1.23398"
       clip-path="url(#clipPath4985)" /><path
       inkscape:connector-curvature="0"
       id="path1028"
       style="fill:#005e8a;fill-opacity:1;fill-rule:nonzero;stroke:none;stroke-width:0.1"
       d="m 404.693,10.625 6.934,-2.86719 0.016,0.17305 -6.951,2.87424 10e-4,-0.1801"
       clip-path="url(#clipPath4981)" /><path
       inkscape:connector-curvature="0"
       id="path1030"
       style="fill:#005e8a;fill-opacity:1;fill-rule:nonzero;stroke:none;stroke-width:0.1"
       d="m 397.941,10.5121 c -0.11,0.009 -0.198,0.1219 -0.198,0.2609 0,0.0098 0.002,0.02 0.002,0.0301 -0.233,-0.248 -0.545,-0.366 -0.862,-0.3492 -0.257,0.0152 -0.518,0.1191 -0.748,0.3133 -10e-4,-0.1332 -0.085,-0.2422 -0.192,-0.2551 l 0.273,-1.15624 0.272,-0.7418 h 0.911 l 0.27,0.7418 0.272,1.15624"
       clip-path="url(#clipPath4977)" /><path
       inkscape:connector-curvature="0"
       id="path1032"
       style="fill:#005e8a;fill-opacity:1;fill-rule:nonzero;stroke:none;stroke-width:0.1"
       d="m 397.954,10.5988 c 0.088,0 0.159,0.0793 0.159,0.1774 0,0.0968 -0.071,0.1769 -0.159,0.1769 -0.087,0 -0.157,-0.0801 -0.157,-0.1769 0,-0.0981 0.07,-0.1774 0.157,-0.1774"
       clip-path="url(#clipPath4973)" /><path
       inkscape:connector-curvature="0"
       id="path1034"
       style="fill:#005e8a;fill-opacity:1;fill-rule:nonzero;stroke:none;stroke-width:0.1"
       d="m 432.594,16.55 7.364,-4.173 v 3.671 c -0.894,3.5379 -3.376,7.2239 -7.347,9.4629 L 432.594,16.55"
       clip-path="url(#clipPath4969)" /><path
       inkscape:connector-curvature="0"
       id="path1036"
       style="fill:#005e8a;fill-opacity:1;fill-rule:nonzero;stroke:none;stroke-width:0.1"
       d="M 441.413,8.65 V 95.7461 H 0 V 21.673 c 2.68203,5.2551 9.8668,10.6411 21.3238,13.5161 l -0.0015,0.6597 1.1937,0.6563 c -0.223,0.7187 -0.3379,1.473 -0.3379,2.232 0.0094,3.3207 2.1723,6.7481 7.3809,7.3969 l 0.7519,1.1109 1.5434,-3.1679 c 1.0668,-0.0301 1.7918,-0.0891 1.7918,-0.1559 0,-0.066 -0.6813,-0.1223 -1.6941,-0.1531 l 0.1554,-0.8 c 1.2996,-0.0289 2.1899,-0.0891 2.1899,-0.1578 0,-0.068 -0.8618,-0.1274 -2.1285,-0.1571 l 0.2597,-1.3203 c 1.3563,-0.0308 2.2653,-0.0867 2.2653,-0.1508 0,-0.064 -0.884,-0.1191 -2.2071,-0.15 l 0.184,-0.9351 c 2.2984,-0.0469 3.9078,-0.1539 3.9078,-0.2789 0,-0.1239 -1.5605,-0.2301 -3.7992,-0.2782 l 0.0711,-0.3617 4.7586,-3.3293 v -17.025 h 1.3246 v 0.4551 l 2.0715,-0.0867 c -0.0328,0.3789 -0.05,0.7637 -0.05,1.1488 0.0047,3.0192 1.0269,6.132 3.4906,6.7231 l 0.357,1.0089 0.7301,-2.8781 c 0.5051,-0.0277 0.8465,-0.0808 0.8465,-0.1418 0,-0.0601 -0.3227,-0.1109 -0.8008,-0.139 l 0.0738,-0.727 c 0.6153,-0.0269 1.0352,-0.0812 1.0352,-0.1441 0,-0.0621 -0.4074,-0.1149 -1.0055,-0.1418 l 0.1215,-1.2 c 0.6414,-0.0282 1.0727,-0.0793 1.0727,-0.1371 0,-0.0582 -0.4184,-0.1082 -1.0446,-0.1371 l 0.0868,-0.8489 c 1.0867,-0.0422 1.8484,-0.1402 1.8484,-0.2543 0,-0.1117 -0.7379,-0.209 -1.7969,-0.2519 l 0.0332,-0.3289 1.3532,-1.818 2.4097,-0.1012 h 0.2172 v -0.009 l 1.8895,-0.0789 3.7769,-1.8711 h -5.6633 l 0.0063,-5.0308 8.9668,-0.0199 -0.0235,-2.92191 0.0235,0.00273 0.4515,0.73516 4.5055,1.16292 0.1668,-0.94612 48.5358,3.23902 0.002,0.2243 1.323,0.6058 -1.876,1.4379 8.453,-0.0098 -2.423,-1.4281 1.853,-0.7961 0.048,-9.53474 4.609,0.01172 0.009,6.95822 h 0.584 l 0.552,0.8359 0.555,1.302 c -0.22,0.014 -0.391,0.1398 -0.391,0.2941 0,0.1629 0.195,0.2949 0.435,0.2949 0.183,0 0.339,-0.0769 0.405,-0.1851 0.469,-0.302 1.117,-0.4457 1.782,-0.427 0.527,0.016 1.067,0.1379 1.532,0.366 0.036,0.1403 0.213,0.2461 0.43,0.2461 0.241,0 0.436,-0.132 0.436,-0.2949 0,-0.157 -0.18,-0.284 -0.406,-0.2949 l 0.553,-1.3012 0.554,-0.8359 0.035,-0.1821 V 8.52813 h 2.199 v -4.775 h 2.772 l -0.005,1.98203 2.409,0.35703 0.437,0.71562 4.378,1.13321 0.293,-1.66993 0.144,-0.025 c -0.02,0.19883 -0.031,0.40079 -0.031,0.60391 0.003,1.39297 0.475,2.82891 1.611,3.10195 l 0.165,0.46525 0.337,-1.32814 c 0.232,-0.01211 0.39,-0.03711 0.39,-0.06523 0,-0.02695 -0.148,-0.05078 -0.37,-0.06367 l 0.035,-0.33633 c 0.283,-0.01172 0.478,-0.03672 0.478,-0.06602 0,-0.02773 -0.189,-0.05273 -0.466,-0.06562 l 0.057,-0.55313 c 0.297,-0.01289 0.495,-0.03593 0.495,-0.06289 0,-0.02734 -0.193,-0.05 -0.483,-0.06328 l 0.041,-0.3918 c 0.502,-0.01992 0.853,-0.06523 0.853,-0.11718 0,-0.05196 -0.34,-0.09688 -0.829,-0.1168 l 0.016,-0.15117 1.01,-1.35703 1.342,-0.23008 0.473,0.63515 0.016,0.15196 c -0.489,0.01992 -0.831,0.06406 -0.831,0.11601 0,0.05313 0.352,0.09805 0.854,0.11719 l 0.04,0.39297 c -0.29,0.01289 -0.482,0.03594 -0.482,0.06172 0,0.02734 0.198,0.05117 0.494,0.06406 l 0.057,0.55313 c -0.275,0.01289 -0.464,0.03711 -0.464,0.06601 0,0.02891 0.193,0.05391 0.478,0.06602 l 0.033,0.33476 c -0.22,0.01328 -0.37,0.03711 -0.37,0.06524 0,0.02812 0.159,0.05195 0.392,0.06484 L 149.978,9.46602 150.141,9 c 1.138,-0.27187 1.61,-1.70898 1.611,-3.10117 0,-0.31172 -0.023,-0.62266 -0.071,-0.91875 l 0.295,-0.05117 -0.013,-4.073051 5.813,0.029297 0.006,2.371874 h -1.792 l 0.779,0.59414 h 1.016 l 0.003,1.22578 h -1.798 l 0.779,0.59297 h 1.023 l 0.001,1.06797 h -1.803 l 0.779,0.59297 h 1.026 l 0.003,1.05 h -1.808 l 0.779,0.59297 h 1.03 l 0.005,1.41837 1.285,0.5898 -0.048,1.391 h 4.135 l -0.048,-1.391 1.801,-0.775 0.005,-1.23317 h 0.852 l 0.79,-0.59297 h -1.639 l 0.004,-1.05 h 0.845 l 0.79,-0.59297 h -1.631 l 0.006,-1.06797 h 0.835 l 0.79,-0.59297 h -1.624 l 0.008,-1.22578 h 0.826 l 0.79,-0.59414 h -1.614 l 0.011,-2.330858 4.479,0.005859 V 7.64375 h 0.958 l -1.625,0.5082 h 2.812 c -1.178,0.30508 -2.01,1.05313 -2.01,1.92815 0,0 0.082,-0.11994 0.237,-0.29924 h 1.44 c 0.283,0.27934 0.889,0.47224 1.593,0.47224 0.704,0 1.309,-0.1929 1.594,-0.47224 h 1.293 c 0.128,0.1793 0.184,0.29924 0.184,0.29924 0,-0.13908 -0.023,-0.27424 -0.063,-0.40627 L 175.862,9.66719 C 175.647,8.975 174.904,8.40781 173.916,8.15195 h 3.096 l -1.446,-0.5082 h 0.748 V 5.73516 h 2.136 V 1.08398 h 3.19 l -0.03,4.84493 8.077,0.07422 -0.011,13.87387 h 9.017 l 0.071,3.0082 h 2.116 c -0.015,0.0257 -0.026,0.0519 -0.04,0.0777 h 0.362 c 0.013,-0.0258 0.025,-0.052 0.038,-0.0777 h 0.78 c -0.012,0.0257 -0.023,0.0519 -0.036,0.0777 h 0.359 c 0.014,-0.0258 0.023,-0.052 0.037,-0.0777 h 0.419 v 0.0777 h 19.865 v -0.1277 c 2.778,3.1238 7.334,5.991 13.589,7.741 l -10e-4,0.5488 0.89,0.5449 c -0.165,0.5981 -0.252,1.225 -0.252,1.8563 0.008,2.7617 1.622,5.6109 5.508,6.1508 l 0.045,-0.0969 0.516,1.0211 1.152,-2.634 c 0.797,-0.025 1.337,-0.0742 1.337,-0.1301 0,-0.0551 -0.508,-0.1012 -1.265,-0.1269 l 0.118,-0.6653 c 0.969,-0.025 1.633,-0.075 1.633,-0.132 0,-0.0559 -0.643,-0.1051 -1.587,-0.1301 l 0.193,-1.0976 c 1.012,-0.0262 1.69,-0.0731 1.69,-0.1262 0,-0.0531 -0.659,-0.0981 -1.647,-0.125 l 0.137,-0.777 c 1.716,-0.039 2.916,-0.1289 2.916,-0.232 0,-0.1031 -1.164,-0.1922 -2.835,-0.2309 l 0.054,-0.3011 3.551,-2.768 V 16.9668 h 9.234 l 0.008,-5.8129 6.69,-0.0168 -0.017,-2.43007 0.017,0.00313 0.337,0.61093 3.363,0.96681 0.123,-0.78673 10.584,2.69373 v 0.186 l 0.988,0.5043 -0.038,1.1867 h 3.176 l -0.038,-1.1867 1.383,-0.6622 0.037,-7.92886 3.438,0.00977 v 5.73129 h 5.27 V 8.40391 h 1.643 V 4.43398 h 2.068 l -0.004,1.64805 1.796,0.29688 0.327,0.59492 3.268,0.94219 0.218,-1.38789 5.835,-1.11602 -0.009,-3.38711 4.338,0.02383 0.005,1.97305 h -1.339 l 0.581,0.49296 h 0.76 l 0.001,1.02032 h -1.342 l 0.581,0.49297 h 0.763 l 0.003,0.88789 h -1.347 l 0.581,0.49296 h 0.768 l 10e-4,0.87305 h -1.35 l 0.581,0.49414 h 0.771 l 0.003,1.17891 0.958,0.48982 -0.036,1.1571 h 3.086 l -0.036,-1.1571 1.343,-0.64373 0.005,-1.025 h 0.636 l 0.59,-0.49414 h -1.224 l 0.003,-0.87305 h 0.631 l 0.59,-0.49296 h -1.218 l 0.005,-0.88789 h 0.623 l 0.59,-0.49297 h -1.212 l 0.005,-1.02032 h 0.617 l 0.59,-0.49296 h -1.205 l 0.009,-1.93907 3.34,0.00508 v 5.58125 h 0.717 l -1.214,0.42305 h 2.1 c -0.879,0.2539 -1.501,0.875 -1.501,1.60273 0,0 0.062,-0.09883 0.178,-0.24883 h 1.073 c 0.212,0.23204 0.664,0.39297 1.189,0.39297 0.526,0 0.977,-0.16093 1.189,-0.39297 h 0.966 c 0.095,0.15 0.137,0.24883 0.137,0.24883 0,-0.11484 -0.017,-0.22773 -0.047,-0.33711 V 9.35195 h -0.002 c -0.16,-0.57578 -0.715,-1.04687 -1.453,-1.25976 h 2.311 l -1.079,-0.42305 h 0.558 V 6.08203 h 1.594 V 2.21484 h 2.381 l -0.023,4.02813 6.028,0.06211 -0.009,11.53672 h 6.728 l 0.053,2.5023 h 1.578 c -0.599,1.2981 -0.887,2.5688 -0.887,3.7559 0,3.1078 1.969,5.6461 5.503,6.5078 l 0.958,1.1922 h 2.37 0.707 l 0.336,1.15 0.34,1.1559 c -0.138,0.0089 -0.248,0.1222 -0.248,0.2613 0,0.1449 0.119,0.2629 0.267,0.2629 0.132,0 0.241,-0.0949 0.263,-0.2192 0.285,-0.2031 0.613,-0.3097 0.937,-0.3238 0.406,-0.018 0.803,0.1098 1.089,0.3789 0.041,0.0961 0.135,0.1641 0.247,0.1641 0.148,0 0.267,-0.118 0.267,-0.2629 0,-0.1363 -0.105,-0.2481 -0.24,-0.2613 l 0.34,-1.1559 0.338,-1.15 h 0.549 l 0.629,-1.273 c 2.322,-0.9211 3.617,-3.6321 3.617,-6.9508 0,-1.2672 -0.189,-2.6262 -0.584,-4.0121 h 1.038 l 0.035,-2.6711 h 4.422 l -0.006,-12.32191 3.962,-0.06601 -0.015,-4.301955 h 1.565 V 4.33281 h 1.049 v 1.69532 h 0.367 l -0.71,0.45195 h 1.518 c -0.484,0.22695 -0.849,0.73008 -0.955,1.34492 h -0.001 v 0.00703 c -0.019,0.11602 -0.03,0.23711 -0.03,0.36016 0,0 0.027,-0.10625 0.09,-0.26602 h 0.634 c 0.14,0.24766 0.437,0.41992 0.782,0.41992 0.346,0 0.643,-0.17226 0.781,-0.41992 h 0.707 c 0.075,0.15977 0.116,0.26602 0.116,0.26602 0,-0.77735 -0.409,-1.44102 -0.986,-1.71211 h 1.379 l -0.797,-0.45195 h 0.47 V 0.0679688 l 2.196,-0.0050782 0.007,2.0691394 h -0.792 l 0.387,0.52695 h 0.406 l 0.003,1.08985 h -0.796 l 0.387,0.52734 h 0.409 l 0.003,0.94883 h -0.799 l 0.387,0.52617 h 0.414 l 0.003,0.93164 h -0.804 l 0.387,0.52735 h 0.417 l 0.003,1.09492 0.884,0.68789 0.282,2.23593 c -0.59,0.027 -3.436,0.0262 -3.436,0.2473 0,0.0968 2.527,0.2629 4.079,0.2629 1.756,0 4.023,-0.1582 4.023,-0.2551 0,-0.2039 -2.736,-0.2199 -3.263,-0.2488 l 0.296,-2.24223 0.631,-0.52383 10e-4,-1.25898 h 0.505 l 0.383,-0.52735 h -0.888 l 0.002,-0.93164 h 0.503 L 383.42,5.225 h -0.884 l 10e-4,-0.94883 h 0.5 l 0.383,-0.52734 h -0.883 l 0.002,-1.08985 h 0.498 l 0.383,-0.52695 h -0.88 L 382.543,0.0261719 385.396,0 l -0.007,3.61797 0.145,0.04492 c -0.024,0.26328 -0.036,0.53906 -0.036,0.81602 0.001,1.23711 0.233,2.51211 0.789,2.7539 l 0.082,0.41407 0.165,-1.17969 c 0.114,-0.01133 0.192,-0.03321 0.192,-0.05821 0,-0.02382 -0.074,-0.04492 -0.182,-0.05703 l 0.017,-0.29687 c 0.139,-0.01094 0.235,-0.03399 0.235,-0.05899 0,-0.02617 -0.093,-0.04804 -0.228,-0.05898 l 0.028,-0.49102 c 0.145,-0.01211 0.242,-0.03203 0.242,-0.05703 0,-0.02304 -0.094,-0.04414 -0.236,-0.05625 l 0.019,-0.34765 c 0.247,-0.01719 0.418,-0.05703 0.418,-0.10313 0,-0.04687 -0.166,-0.08594 -0.405,-0.1039 l 0.006,-0.13516 0.233,-0.56406 2.351,0.73007 0.144,1.48399 2.147,-1.00703 0.215,-0.63477 1.182,-0.31836 -0.003,-1.76093 h 1.359 v 4.24101 h 1.079 v 1.63906 l 0.017,0.16211 0.271,0.7418 0.272,1.15624 c -0.112,0.009 -0.198,0.1219 -0.198,0.2609 0,0.145 0.096,0.2629 0.214,0.2629 0.105,0 0.192,-0.0949 0.209,-0.2187 0.23,-0.2024 0.494,-0.3102 0.752,-0.3242 0.327,-0.018 0.645,0.1101 0.875,0.3789 0.031,0.0961 0.108,0.164 0.198,0.164 0.118,0 0.214,-0.1179 0.214,-0.2629 0,-0.1359 -0.085,-0.248 -0.194,-0.2609 l 0.274,-1.15624 0.269,-0.7418 h 0.286 l 0.007,-6.18008 2.259,-0.01015 0.023,8.46837 0.91,0.7066 -1.188,1.2684 4.145,0.0098 -0.919,-1.2782 0.649,-0.5386 v -0.1981 l 6.956,-2.87694 0.082,0.83984 2.21,-1.03281 0.222,-0.65235 0.011,-0.00273 -0.011,2.59492 4.398,0.01797 0.005,6.2078 h 1.251 l 0.701,1.7043 0.016,0.293 c -0.519,0.0379 -0.881,0.1238 -0.881,0.223 0,0.1008 0.373,0.1879 0.906,0.2258 l 0.043,0.7539 c -0.307,0.0262 -0.513,0.0703 -0.513,0.1211 0,0.052 0.212,0.0973 0.527,0.1231 l 0.06,1.0648 c -0.295,0.0242 -0.494,0.0711 -0.494,0.1262 0,0.0558 0.206,0.1039 0.508,0.1281 l 0.036,0.6449 c -0.234,0.025 -0.393,0.0711 -0.393,0.1238 0,0.0543 0.168,0.1012 0.415,0.1262 l 0.359,2.5559 0.174,-0.8957 c 1.208,-0.525 1.71,-3.2903 1.713,-5.9703 0,-0.4547 -0.015,-0.9079 -0.044,-1.3481 h 1.685 v 15.1211 l 2.335,2.9563 0.034,0.3218 c -1.098,0.0418 -1.864,0.136 -1.864,0.2461 0,0.111 0.79,0.2071 1.918,0.2481 l 0.089,0.8297 c -0.649,0.0281 -1.082,0.0769 -1.082,0.1332 0,0.0578 0.445,0.107 1.111,0.1347 l 0.127,1.1731 c -0.621,0.0261 -1.044,0.0781 -1.044,0.139 0,0.061 0.437,0.1141 1.074,0.1403 l 0.077,0.7097 c -0.497,0.0282 -0.83,0.0782 -0.83,0.136 0,0.0601 0.353,0.1121 0.877,0.139 l 0.757,2.8141 0.37,-0.9871 c 2.554,-0.577 3.615,-3.6207 3.619,-6.5699 0,-0.6739 -0.056,-1.3442 -0.165,-1.9821 l 0.586,-0.582 -0.012,-5.2551 c 3.765,-2.0668 6.236,-5.3886 7.347,-8.7179 v 2.4992 h 0.941 V 8.65 h 0.514"
       clip-path="url(#clipPath4965)" /><path
       inkscape:connector-curvature="0"
       id="path1038"
       style="fill:#005e8a;fill-opacity:1;fill-rule:nonzero;stroke:none;stroke-width:0.1"
       d="m 396.079,10.7762 c 0,0.0968 -0.071,0.1769 -0.158,0.1769 -0.088,0 -0.159,-0.0801 -0.159,-0.1769 0,-0.0981 0.071,-0.1774 0.159,-0.1774 0.087,0 0.158,0.0793 0.158,0.1774"
       clip-path="url(#clipPath4961)" /><path
       inkscape:connector-curvature="0"
       id="path1040"
       style="fill:#005e8a;fill-opacity:1;fill-rule:nonzero;stroke:none;stroke-width:0.1"
       d="m 421.521,21.6141 c 0.239,-0.025 0.401,-0.0711 0.401,-0.1243 0,-0.0507 -0.148,-0.096 -0.37,-0.1207 l 0.038,-0.6543 c 0.268,-0.025 0.447,-0.0699 0.447,-0.1218 0,-0.0508 -0.173,-0.095 -0.433,-0.12 l 0.063,-1.066 c 0.36,-0.023 0.609,-0.0718 0.609,-0.1281 0,-0.0551 -0.241,-0.1039 -0.593,-0.1269 l 0.044,-0.7481 c 0.536,-0.0367 0.911,-0.1238 0.911,-0.2258 0,-0.1 -0.364,-0.1851 -0.884,-0.2242 l 0.014,-0.2539 0.911,-1.7422 h 0.154 c 0.03,0.4402 0.046,0.8934 0.046,1.3481 10e-4,2.6261 -0.504,5.2703 -1.596,5.7652 l 0.238,-1.457"
       clip-path="url(#clipPath4957)" /><path
       inkscape:connector-curvature="0"
       id="path1042"
       style="fill:#005e8a;fill-opacity:1;fill-rule:nonzero;stroke:none;stroke-width:0.1"
       d="m 428.591,39.9871 0.5,-1.6031 c 0.505,-0.027 0.846,-0.0781 0.846,-0.1371 0,-0.0559 -0.311,-0.1047 -0.78,-0.1328 l 0.082,-0.7192 c 0.564,-0.0277 0.942,-0.0769 0.942,-0.134 0,-0.0558 -0.365,-0.1058 -0.912,-0.1328 l 0.132,-1.173 c 0.761,-0.025 1.285,-0.0781 1.285,-0.141 0,-0.0602 -0.51,-0.1141 -1.252,-0.1391 l 0.093,-0.8238 c 1.132,-0.041 1.927,-0.1364 1.927,-0.2481 0,-0.1101 -0.77,-0.2043 -1.871,-0.2472 l 0.032,-0.2789 2.212,-2.2051 c 0.088,0.573 0.133,1.1703 0.133,1.7711 0.005,2.8898 -1.065,5.8 -3.369,6.3441"
       clip-path="url(#clipPath4953)" /><path
       inkscape:connector-curvature="0"
       id="path1044"
       style="fill:#005e8a;fill-opacity:1;fill-rule:nonzero;stroke:none;stroke-width:0.1"
       d="m 356.484,34.193 c 0.109,0 0.197,0.0789 0.197,0.1769 0,0.0973 -0.088,0.177 -0.197,0.177 -0.108,0 -0.196,-0.0797 -0.196,-0.177 0,-0.098 0.088,-0.1769 0.196,-0.1769"
       clip-path="url(#clipPath4949)" /><path
       inkscape:connector-curvature="0"
       id="path1046"
       style="fill:#005e8a;fill-opacity:1;fill-rule:nonzero;stroke:none;stroke-width:0.1"
       d="m 356.491,33.582 -0.364,-1.234 -0.16,-0.548 h 1.046 l -0.16,0.548 -0.362,1.234"
       clip-path="url(#clipPath4945)" /><path
       inkscape:connector-curvature="0"
       id="path1048"
       style="fill:#005e8a;fill-opacity:1;fill-rule:nonzero;stroke:none;stroke-width:0.1"
       d="m 356.467,34.1059 c -0.138,0.0089 -0.247,0.1222 -0.247,0.2613 0,0.0098 0.002,0.0199 0.003,0.0297 -0.291,-0.2481 -0.679,-0.366 -1.076,-0.3489 -0.321,0.0149 -0.646,0.1192 -0.931,0.3129 -0.003,-0.1328 -0.107,-0.2418 -0.239,-0.255 l 0.34,-1.1559 0.338,-1.15 h 1.136 l 0.336,1.15 0.34,1.1559"
       clip-path="url(#clipPath4941)" /><path
       inkscape:connector-curvature="0"
       id="path1050"
       style="fill:#005e8a;fill-opacity:1;fill-rule:nonzero;stroke:none;stroke-width:0.1"
       d="m 395.926,9.98789 -0.291,-1.23398 -0.129,-0.13985 h 0.838 l -0.128,0.13985 -0.29,1.23398"
       clip-path="url(#clipPath4937)" /><path
       inkscape:connector-curvature="0"
       id="path1052"
       style="fill:#005e8a;fill-opacity:1;fill-rule:nonzero;stroke:none;stroke-width:0.1"
       d="m 354.144,34.3699 c 0,0.0973 -0.088,0.177 -0.195,0.177 -0.111,0 -0.199,-0.0797 -0.199,-0.177 0,-0.098 0.088,-0.1769 0.199,-0.1769 0.107,0 0.195,0.0789 0.195,0.1769"
       clip-path="url(#clipPath4933)" /><path
       inkscape:connector-curvature="0"
       id="path1054"
       style="fill:#005e8a;fill-opacity:1;fill-rule:nonzero;stroke:none;stroke-width:0.1"
       d="m 353.953,33.582 -0.362,-1.234 -0.16,-0.548 h 1.046 l -0.16,0.548 -0.364,1.234"
       clip-path="url(#clipPath4929)" /><path
       inkscape:connector-curvature="0"
       id="path1056"
       style="fill:#005e8a;fill-opacity:1;fill-rule:nonzero;stroke:none;stroke-width:0.1"
       d="m 343.978,24.1 c 0,-1.1852 0.291,-2.457 0.897,-3.7559 h 0.582 c -0.548,1.2379 -0.812,2.4508 -0.812,3.586 0,2.6508 1.435,4.8871 4.051,6.023 l 0.363,0.4539 c -3.226,-0.8871 -5.081,-3.309 -5.081,-6.307"
       clip-path="url(#clipPath4925)" /><path
       inkscape:connector-curvature="0"
       id="path1058"
       style="fill:#005e8a;fill-opacity:1;fill-rule:nonzero;stroke:none;stroke-width:0.1"
       d="m 375.976,7.825 c 0.025,-0.06797 0.037,-0.13984 0.037,-0.21484 0,-0.40625 -0.388,-0.73633 -0.866,-0.73633 -0.479,0 -0.867,0.33008 -0.867,0.73633 0,0.075 0.012,0.14687 0.038,0.21484 h -0.546 c 0.187,-0.43906 0.591,-1.14297 1.323,-1.34492 0.048,-0.01289 0.154,-0.01289 0.201,0 0.607,0.16289 1.06,0.89297 1.288,1.34492 h -0.608"
       clip-path="url(#clipPath4921)" /><path
       inkscape:connector-curvature="0"
       id="path1060"
       style="fill:#005e8a;fill-opacity:1;fill-rule:nonzero;stroke:none;stroke-width:0.1"
       d="m 385.58,3.73594 0.483,0.925 0.007,0.11719 c -0.24,0.01796 -0.409,0.05703 -0.409,0.1039 0,0.0461 0.173,0.08594 0.422,0.10313 l 0.019,0.3457 c -0.162,0.01016 -0.272,0.0332 -0.272,0.0582 0,0.02578 0.113,0.04883 0.28,0.05899 l 0.028,0.49179 c -0.12,0.01211 -0.198,0.03204 -0.198,0.05625 0,0.02266 0.082,0.04375 0.206,0.05586 l 0.017,0.30118 c -0.102,0.01171 -0.17,0.03281 -0.17,0.05585 0,0.025 0.074,0.0461 0.184,0.05821 l 0.109,0.67187 c -0.502,-0.2289 -0.736,-1.44804 -0.735,-2.66015 0,-0.25196 0.01,-0.50274 0.029,-0.74297"
       clip-path="url(#clipPath4917)" /><path
       inkscape:connector-curvature="0"
       id="path1062"
       style="fill:#005e8a;fill-opacity:1;fill-rule:nonzero;stroke:none;stroke-width:0.1"
       d="m 358.873,29.5051 1.587,-3.2192 0.001,-6.7218 h 0.205 c 0.363,1.3238 0.538,2.6199 0.538,3.8297 0,2.6542 -0.837,4.8851 -2.331,6.1113"
       clip-path="url(#clipPath4913)" /><path
       inkscape:connector-curvature="0"
       id="path1064"
       style="fill:#005e8a;fill-opacity:1;fill-rule:nonzero;stroke:none;stroke-width:0.1"
       d="m 358.474,30.3121 0.24,-0.4851 c 1.719,-1.2129 2.661,-3.6008 2.661,-6.4332 0,-1.2118 -0.173,-2.5067 -0.531,-3.8297 h 0.38 c 0.4,1.3871 0.59,2.7461 0.59,4.0121 0,3.2019 -1.219,5.7879 -3.34,6.7359"
       clip-path="url(#clipPath4909)" /><rect
       style="fill:url(#linearGradient5081);fill-opacity:1;stroke:none;stroke-width:4.5;stroke-miterlimit:4;stroke-dasharray:none;stroke-opacity:1"
       id="rect1085"
       width="441.41003"
       height="96.920059"
       x="0"
       y="-95.746101"
       transform="scale(1,-1)"
       ry="3.395565e-05"
       clip-path="url(#clipPath4905)" /><rect
       style="opacity:0.6968002;fill:#cccccc;fill-opacity:1;stroke:none;stroke-width:4.5;stroke-miterlimit:4;stroke-dasharray:none;stroke-opacity:1"
       id="rect4860"
       width="0.83011705"
       height="3.3204682"
       x="278.91934"
       y="97.953819"
       transform="scale(1,-1)"
       ry="0.41505852" /></g></svg>